Youtube Videos

There is a total of 21 data points in this survey and was done
through a online form.

## # A tibble: 21 × 7
##    Timestamp          language_id length_id letter_amount people_tm Fit_criteria
##    <chr>              <chr>       <chr>             <dbl> <chr>     <chr>       
##  1 30/03/2025 16:22:… English     Less tha…            38 1         Video is in…
##  2 30/03/2025 16:24:… Chinese     Less tha…            51 1         Video has o…
##  3 30/03/2025 16:27:… English     More tha…            27 2         Video is in…
##  4 30/03/2025 16:30:… Korean      More tha…            54 More tha… Video is re…
##  5 30/03/2025 16:38:… Spanish     Less tha…            45 2         Video is re…
##  6 30/03/2025 16:39:… English     Between …            55 2         Video is in…
##  7 30/03/2025 16:41:… English     More tha…            46 2         Video longe…
##  8 30/03/2025 16:43:… Korean      More tha…            45 More tha… Video longe…
##  9 30/03/2025 16:44:… English     More tha…            10 2         Video longe…
## 10 30/03/2025 16:45:… Chinese     Less tha…            35 More tha… Video is re…
## # ℹ 11 more rows
## # ℹ 1 more variable: `What did you think of the survey?` <chr>
…
